Fundamentos Estadísticos con R - 1 Summary (resumen) Estadística
…
Número de click en un anuncio

1.2 Medidas del Centro

En esta sección, comenzaremos a analizar las estadísticas de resumen, algunas de las cuales quizás ya le resulten familiares, como la media y la mediana.

1.2.1 Datos de sueño de mamiferos

Veremos los datos sobre los hábitos de sueño de diferentes mamíferos. Estos datos ya estan precargados por defecto en R en el paquete o librería de ggplot2, veamos como acceder a ellos en R.

library(ggplot2)  
data("msleep") 
msleep

# A tibble: 83 × 11
   name   genus vore  order conservation sleep_total sleep_rem sleep_cycle awake
   <chr>  <chr> <chr> <chr> <chr>              <dbl>     <dbl>       <dbl> <dbl>
 1 Cheet… Acin… carni Carn… lc                  12.1      NA        NA      11.9
 2 Owl m… Aotus omni  Prim… <NA>                17         1.8      NA       7  
 3 Mount… Aplo… herbi Rode… nt                  14.4       2.4      NA       9.6
 4 Great… Blar… omni  Sori… lc                  14.9       2.3       0.133   9.1
 5 Cow    Bos   herbi Arti… domesticated         4         0.7       0.667  20  
 6 Three… Brad… herbi Pilo… <NA>                14.4       2.2       0.767   9.6
 7 North… Call… carni Carn… vu                   8.7       1.4       0.383  15.3
 8 Vespe… Calo… <NA>  Rode… <NA>                 7        NA        NA      17  
 9 Dog    Canis carni Carn… domesticated        10.1       2.9       0.333  13.9
10 Roe d… Capr… herbi Arti… lc                   3        NA        NA      21  
# ℹ 73 more rows
# ℹ 2 more variables: brainwt <dbl>, bodywt <dbl>
…
library(tidyverse)

── Attaching core tidyverse packages ──────────────────────── tidyverse 2.0.0 ──
✔ dplyr     1.1.2     ✔ readr     2.1.4
✔ forcats   1.0.0     ✔ stringr   1.5.0
✔ lubridate 1.9.2     ✔ tibble    3.2.1
✔ purrr     1.0.1     ✔ tidyr     1.3.0
── Conflicts ────────────────────────────────────────── tidyverse_conflicts() ──
✖ dplyr::filter() masks stats::filter()
✖ dplyr::lag()    masks stats::lag()
ℹ Use the conflicted package (<http://conflicted.r-lib.org/>) to force all conflicts to become errors

msleep %>% count(sleep_total, sort = TRUE)

# A tibble: 65 × 2
   sleep_total     n
         <dbl> <int>
 1        12.5     4
 2        10.1     3
 3         5.3     2
 4         6.3     2
 5         8.4     2
 6         8.7     2
 7         9.1     2
 8         9.4     2
 9         9.8     2
10        10.3     2
# ℹ 55 more rows
…
Para encontrar valores atípicos, comenzaremos calculando el IQR de los pesos corporales de los mamiferos.

iqr <- quantile(msleep$sleep_total,0.75) - quantile(msleep$sleep_total, 0.25)

Luego podemos calcular los umbrales inferior y superior siguiendo las fórmulas de la diapositiva anterior.

lower_threshold <- quantile(msleep$sleep_total, 0.25) - 1.5*iqr
upper_threshold <- quantile(msleep$sleep_total, 0.75) + 1.5*iqr

Ahora podemos filtrar el marco de datos para encontrar mamiferos cuyo peso corporal esta por encima o por debajo de los umbrales.

msleep %>% filter(bodywt < lower_threshold | bodywt > upper_threshold) %>% 
  select(name, vore, sleep_total, bodywt)

# A tibble: 23 × 4
   name           vore  sleep_total bodywt
   <chr>          <chr>       <dbl>  <dbl>
 1 Cheetah        carni        12.1   50  
 2 Cow            herbi         4    600  
 3 Goat           herbi         5.3   33.5
 4 Asian elephant herbi         3.9 2547  
 5 Horse          herbi         2.9  521  
 6 Donkey         herbi         3.1  187  
 7 Giraffe        herbi         1.9  900. 
 8 Pilot whale    carni         2.7  800  
 9 Gray seal      carni         6.2   85  
10 Human          omni          8     62  
# ℹ 13 more rows
…
